vcd/full_adder_utest.vcd
$date
  Tue Apr  7 16:01:06 2015
$end
$version
  GHDL v0
$end
$timescale
  1 fs
$end
$var reg 1 ! a $end
$var reg 1 " b $end
$var reg 1 # result $end
$var reg 1 $ carry_in $end
$var reg 1 % carry_out $end
$scope module dut $end
$var reg 1 & a $end
$var reg 1 ' b $end
$var reg 1 ( carry_in $end
$var reg 1 ) sum $end
$var reg 1 * carry_out $end
$var reg 1 + ha1_carry_out $end
$var reg 1 , ha2_sum $end
$var reg 1 - ha2_carry_out $end
$scope module ha1 $end
$var reg 1 . a $end
$var reg 1 / b $end
$var reg 1 0 sum $end
$var reg 1 1 carry $end
$upscope $end
$scope module ha2 $end
$var reg 1 2 a $end
$var reg 1 3 b $end
$var reg 1 4 sum $end
$var reg 1 5 carry $end
$upscope $end
$upscope $end
$enddefinitions $end
#0
0!
0"
0#
0$
0%
0&
0'
0(
0)
0*
0+
0,
0-
0.
0/
00
01
02
03
04
05
#2000000
1!
1#
1&
1)
1,
1/
10
12
14
#3000000
0#
1$
1%
1(
0)
1*
1+
1.
00
11
#4000000
1"
0#
0$
1'
0(
0)
0+
0,
1-
0.
0/
00
01
13
04
15
#5000000
1#
1$
1(
1)
1.
10
#6000000
0!
0#
1%
0&
0)
1*
1+
1,
0-
1/
00
11
02
14
05
#8000000
0"
1#
0%
0'
1)
0*
0+
0,
0/
10
01
03
04
#10000000
1!
0#
1%
1&
0)
1*
1+
1,
1/
00
11
12
14
#12000000
1"
1#
1'
1)
0+
0,
1-
0/
10
01
13
04
15
