vcd/generic_mux_10_utest.vcd
$date
  Wed Apr  8 14:43:27 2015
$end
$version
  GHDL v0
$end
$timescale
  1 fs
$end
$var reg 16 ! i0[15:0] $end
$var reg 16 " i1[15:0] $end
$var reg 16 # i2[15:0] $end
$var reg 16 $ i3[15:0] $end
$var reg 16 % i4[15:0] $end
$var reg 16 & i5[15:0] $end
$var reg 16 ' i6[15:0] $end
$var reg 16 ( i7[15:0] $end
$var reg 16 ) i8[15:0] $end
$var reg 16 * i9[15:0] $end
$var reg 4 + sel[3:0] $end
$var reg 16 , o[15:0] $end
$scope module dut $end
$var reg 16 - i0[15:0] $end
$var reg 16 . i1[15:0] $end
$var reg 16 / i2[15:0] $end
$var reg 16 0 i3[15:0] $end
$var reg 16 1 i4[15:0] $end
$var reg 16 2 i5[15:0] $end
$var reg 16 3 i6[15:0] $end
$var reg 16 4 i7[15:0] $end
$var reg 16 5 i8[15:0] $end
$var reg 16 6 i9[15:0] $end
$var reg 4 7 sel[3:0] $end
$var reg 16 8 o[15:0] $end
$upscope $end
$enddefinitions $end
#0
b0000000000000000 !
b1000000000000000 "
b1100000000000000 #
b1110000000000000 $
b1111000000000000 %
b1111100000000000 &
b1111110000000000 '
b1111111000000000 (
b1111111100000000 )
b1111111110000000 *
b0000 +
b0000000000000000 ,
b0000000000000000 -
b1000000000000000 .
b1100000000000000 /
b1110000000000000 0
b1111000000000000 1
b1111100000000000 2
b1111110000000000 3
b1111111000000000 4
b1111111100000000 5
b1111111110000000 6
b0000 7
b0000000000000000 8
#1000000
b0001 +
b1000000000000000 ,
b0001 7
b1000000000000000 8
#2000000
b0010 +
b1100000000000000 ,
b0010 7
b1100000000000000 8
#3000000
b0011 +
b1110000000000000 ,
b0011 7
b1110000000000000 8
#4000000
b0100 +
b1111000000000000 ,
b0100 7
b1111000000000000 8
#5000000
b0101 +
b1111100000000000 ,
b0101 7
b1111100000000000 8
#6000000
b0110 +
b1111110000000000 ,
b0110 7
b1111110000000000 8
#7000000
b0111 +
b1111111000000000 ,
b0111 7
b1111111000000000 8
#8000000
b1000 +
b1111111100000000 ,
b1000 7
b1111111100000000 8
#9000000
b1001 +
b1111111110000000 ,
b1001 7
b1111111110000000 8
#10000000
b1010 +
bZZZZZZZZZZZZZZZZ ,
b1010 7
bZZZZZZZZZZZZZZZZ 8
#11000000
b1101 +
b1101 7
