vcd/generic_register_utest.vcd
$date
  Tue Apr  7 18:18:24 2015
$end
$version
  GHDL v0
$end
$timescale
  1 fs
$end
$var reg 16 ! i[15:0] $end
$var reg 1 " w $end
$var reg 16 # o[15:0] $end
$scope module dut $end
$var reg 16 $ i[15:0] $end
$var reg 1 % w $end
$var reg 16 & o[15:0] $end
$scope module d_latches_generation(0) $end
$scope module d_latches $end
$var reg 1 ' i $end
$var reg 1 ( w $end
$var reg 1 ) o $end
$var reg 1 * and1 $end
$var reg 1 + and2 $end
$var reg 1 , nor1 $end
$var reg 1 - nor2 $end
$upscope $end
$upscope $end
$scope module d_latches_generation(1) $end
$scope module d_latches $end
$var reg 1 . i $end
$var reg 1 / w $end
$var reg 1 0 o $end
$var reg 1 1 and1 $end
$var reg 1 2 and2 $end
$var reg 1 3 nor1 $end
$var reg 1 4 nor2 $end
$upscope $end
$upscope $end
$scope module d_latches_generation(2) $end
$scope module d_latches $end
$var reg 1 5 i $end
$var reg 1 6 w $end
$var reg 1 7 o $end
$var reg 1 8 and1 $end
$var reg 1 9 and2 $end
$var reg 1 : nor1 $end
$var reg 1 ; nor2 $end
$upscope $end
$upscope $end
$scope module d_latches_generation(3) $end
$scope module d_latches $end
$var reg 1 < i $end
$var reg 1 = w $end
$var reg 1 > o $end
$var reg 1 ? and1 $end
$var reg 1 @ and2 $end
$var reg 1 A nor1 $end
$var reg 1 B nor2 $end
$upscope $end
$upscope $end
$scope module d_latches_generation(4) $end
$scope module d_latches $end
$var reg 1 C i $end
$var reg 1 D w $end
$var reg 1 E o $end
$var reg 1 F and1 $end
$var reg 1 G and2 $end
$var reg 1 H nor1 $end
$var reg 1 I nor2 $end
$upscope $end
$upscope $end
$scope module d_latches_generation(5) $end
$scope module d_latches $end
$var reg 1 J i $end
$var reg 1 K w $end
$var reg 1 L o $end
$var reg 1 M and1 $end
$var reg 1 N and2 $end
$var reg 1 O nor1 $end
$var reg 1 P nor2 $end
$upscope $end
$upscope $end
$scope module d_latches_generation(6) $end
$scope module d_latches $end
$var reg 1 Q i $end
$var reg 1 R w $end
$var reg 1 S o $end
$var reg 1 T and1 $end
$var reg 1 U and2 $end
$var reg 1 V nor1 $end
$var reg 1 W nor2 $end
$upscope $end
$upscope $end
$scope module d_latches_generation(7) $end
$scope module d_latches $end
$var reg 1 X i $end
$var reg 1 Y w $end
$var reg 1 Z o $end
$var reg 1 [ and1 $end
$var reg 1 \ and2 $end
$var reg 1 ] nor1 $end
$var reg 1 ^ nor2 $end
$upscope $end
$upscope $end
$scope module d_latches_generation(8) $end
$scope module d_latches $end
$var reg 1 _ i $end
$var reg 1 ` w $end
$var reg 1 a o $end
$var reg 1 b and1 $end
$var reg 1 c and2 $end
$var reg 1 d nor1 $end
$var reg 1 e nor2 $end
$upscope $end
$upscope $end
$scope module d_latches_generation(9) $end
$scope module d_latches $end
$var reg 1 f i $end
$var reg 1 g w $end
$var reg 1 h o $end
$var reg 1 i and1 $end
$var reg 1 j and2 $end
$var reg 1 k nor1 $end
$var reg 1 l nor2 $end
$upscope $end
$upscope $end
$scope module d_latches_generation(10) $end
$scope module d_latches $end
$var reg 1 m i $end
$var reg 1 n w $end
$var reg 1 o o $end
$var reg 1 p and1 $end
$var reg 1 q and2 $end
$var reg 1 r nor1 $end
$var reg 1 s nor2 $end
$upscope $end
$upscope $end
$scope module d_latches_generation(11) $end
$scope module d_latches $end
$var reg 1 t i $end
$var reg 1 u w $end
$var reg 1 v o $end
$var reg 1 w and1 $end
$var reg 1 x and2 $end
$var reg 1 y nor1 $end
$var reg 1 z nor2 $end
$upscope $end
$upscope $end
$scope module d_latches_generation(12) $end
$scope module d_latches $end
$var reg 1 { i $end
$var reg 1 | w $end
$var reg 1 } o $end
$var reg 1 !" and1 $end
$var reg 1 "" and2 $end
$var reg 1 #" nor1 $end
$var reg 1 $" nor2 $end
$upscope $end
$upscope $end
$scope module d_latches_generation(13) $end
$scope module d_latches $end
$var reg 1 %" i $end
$var reg 1 &" w $end
$var reg 1 '" o $end
$var reg 1 (" and1 $end
$var reg 1 )" and2 $end
$var reg 1 *" nor1 $end
$var reg 1 +" nor2 $end
$upscope $end
$upscope $end
$scope module d_latches_generation(14) $end
$scope module d_latches $end
$var reg 1 ," i $end
$var reg 1 -" w $end
$var reg 1 ." o $end
$var reg 1 /" and1 $end
$var reg 1 0" and2 $end
$var reg 1 1" nor1 $end
$var reg 1 2" nor2 $end
$upscope $end
$upscope $end
$scope module d_latches_generation(15) $end
$scope module d_latches $end
$var reg 1 3" i $end
$var reg 1 4" w $end
$var reg 1 5" o $end
$var reg 1 6" and1 $end
$var reg 1 7" and2 $end
$var reg 1 8" nor1 $end
$var reg 1 9" nor2 $end
$upscope $end
$upscope $end
$upscope $end
$enddefinitions $end
#0
bUUUUUUUUUUUUUUUU !
0"
bUUUUUUUUUUUUUUUU #
bUUUUUUUUUUUUUUUU $
0%
bUUUUUUUUUUUUUUUU &
U'
0(
U)
0*
0+
U,
U-
U.
0/
U0
01
02
U3
U4
U5
06
U7
08
09
U:
U;
U<
0=
U>
0?
0@
UA
UB
UC
0D
UE
0F
0G
UH
UI
UJ
0K
UL
0M
0N
UO
UP
UQ
0R
US
0T
0U
UV
UW
UX
0Y
UZ
0[
0\
U]
U^
U_
0`
Ua
0b
0c
Ud
Ue
Uf
0g
Uh
0i
0j
Uk
Ul
Um
0n
Uo
0p
0q
Ur
Us
Ut
0u
Uv
0w
0x
Uy
Uz
U{
0|
U}
0!"
0""
U#"
U$"
U%"
0&"
U'"
0("
0)"
U*"
U+"
U,"
0-"
U."
0/"
00"
U1"
U2"
U3"
04"
U5"
06"
07"
U8"
U9"
#1000000
b0000000000000000 !
b0000000000000000 $
0'
0.
05
0<
0C
0J
0Q
0X
0_
0f
0m
0t
0{
0%"
0,"
03"
#2000000
b0001000000000000 !
b0001000000000000 $
1{
#3000000
1"
b0001000000000000 #
1%
b0001000000000000 &
1(
0)
1+
1,
0-
1/
00
12
13
04
16
07
19
1:
0;
1=
0>
1@
1A
0B
1D
0E
1G
1H
0I
1K
0L
1N
1O
0P
1R
0S
1U
1V
0W
1Y
0Z
1\
1]
0^
1`
0a
1c
1d
0e
1g
0h
1j
1k
0l
1n
0o
1q
1r
0s
1u
0v
1x
1y
0z
1|
1}
1!"
0#"
1$"
1&"
0'"
1)"
1*"
0+"
1-"
0."
10"
11"
02"
14"
05"
17"
18"
09"
#4000000
b0001000100010000 !
0"
b0001000100010000 $
0%
0(
0+
0/
02
06
09
0=
0@
1C
0D
0G
0K
0N
0R
0U
0Y
0\
1_
0`
0c
0g
0j
0n
0q
0u
0x
0|
0!"
0&"
0)"
0-"
00"
04"
07"
#5000000
1"
b0001000100010000 #
1%
b0001000100010000 &
1(
1+
1/
12
16
19
1=
1@
1D
1E
1F
0H
1I
1K
1N
1R
1U
1Y
1\
1`
1a
1b
0d
1e
1g
1j
1n
1q
1u
1x
1|
1!"
1&"
1)"
1-"
10"
14"
17"
#6000000
b0000000000010100 !
0"
b0000000000010100 $
0%
0(
0+
0/
02
15
06
09
0=
0@
0D
0F
0K
0N
0R
0U
0Y
0\
0_
0`
0b
0g
0j
0n
0q
0u
0x
0{
0|
0!"
0&"
0)"
0-"
00"
04"
07"
#7000000
1"
b0000000000010100 #
1%
b0000000000010100 &
1(
1+
1/
12
16
17
18
0:
1;
1=
1@
1D
1F
1K
1N
1R
1U
1Y
1\
1`
0a
1c
1d
0e
1g
1j
1n
1q
1u
1x
1|
0}
1""
1#"
0$"
1&"
1)"
1-"
10"
14"
17"
#8000000
0"
0%
0(
0+
0/
02
06
08
0=
0@
0D
0F
0K
0N
0R
0U
0Y
0\
0`
0c
0g
0j
0n
0q
0u
0x
0|
0""
0&"
0)"
0-"
00"
04"
07"
#9000000
1"
1%
1(
1+
1/
12
16
18
1=
1@
1D
1F
1K
1N
1R
1U
1Y
1\
1`
1c
1g
1j
1n
1q
1u
1x
1|
1""
1&"
1)"
1-"
10"
14"
17"
#10000000
b1111111111111111 !
b1111111111111111 #
b1111111111111111 $
b1111111111111111 &
1'
1)
1*
0+
0,
1-
1.
10
11
02
03
14
1<
1>
1?
0@
0A
1B
1J
1L
1M
0N
0O
1P
1Q
1S
1T
0U
0V
1W
1X
1Z
1[
0\
0]
1^
1_
1a
1b
0c
0d
1e
1f
1h
1i
0j
0k
1l
1m
1o
1p
0q
0r
1s
1t
1v
1w
0x
0y
1z
1{
1}
1!"
0""
0#"
1$"
1%"
1'"
1("
0)"
0*"
1+"
1,"
1."
1/"
00"
01"
12"
13"
15"
16"
07"
08"
19"
